/* XPM */
static const char * Gen_xpm[] = {
"16 16 2 1",
" 	c None",
".	c #000000",
"                ",
"                ",
"       ..       ",
"       ..       ",
"       ..       ",
"       ..       ",
"       ..       ",
"       ..       ",
"       ..       ",
"   ..........   ",
"    ........    ",
"     ......     ",
"      ....      ",
"   ..........   ",
"                ",
"                "};
